Antigang
http://www.zone-telechargement.com/films/dvdrip-bdrip/110134-antigang.html
http://images.zone-telechargement.com/360/http://images.allocine.fr/pictures/15/07/08/12/47/557854.jpg
7.2

4788.0
Action, Policier
Benjamin Rocher
2015
Serge Buren est un flic de légende, entouré d’une bande de jeunes flics aux méthodes peu conventionnelles.Qu’importe qu’ils utilisent des battes de baseball ou « oublient » le règlement au cours d’arrestations spectaculaires, les résultats sont au rendez-vous !C’est alors qu’un groupe de braqueurs meurtriers entre en scène, dévalisant avec une facilité déconcertante banques et bijouteries de la capitale, à coup d’armes de guerre et de scénarios imparables.Face à tant d’ingéniosité et de brutalité, Buren et son unité se retrouvent confrontés à une situation délicate :leurs méthodes expéditives suffiront-elles à arrêter ces criminels autrement plus machiavéliques ?</div></div>
z3q-pD0nY5c
