Divergente 3 : au-delà du mur
http://www.zone-telechargement.com/films/dvdrip-bdrip/141759-divergente-3-au-dela-du-mur.html
http://images.zone-telechargement.com/360/http://images.allocine.fr/pictures/16/02/18/15/30/225612.jpg
6.4

7200.0
Science fiction, Aventure, Action
Robert Schwentke
2016
Sous le choc, Tris et Quatre doivent fuir et franchir le mur encerclant Chicago. Pour la première fois, ils quittent la seule ville et famille qu'ils aient connues. Mais au delà du mur se trouve un monde hostile qu'ils vont devoir affronter. Tris et Quatre doivent rapidement déterminer en qui ils peuvent avoir confiance alors qu’une bataille menaçant l’humanité toute entière est sur le point d'éclater...</div></div>
e2y5YVtL81s
