Predestination
http://www.zone-telechargement.com/films/dvdrip-bdrip/67019-predestination.html
http://images.zone-telechargement.com/360/http://i.imgur.com/5IKPtf7.jpg
7.6
Qualité DVDRiP | TRUEFRENCH
4968.0
Science fiction, Thriller
Michael Spierig
2014
Pour sa dernière mission d’Agent Temporel, ce voyageur dans le temps doit capturer le seul criminel qui lui a toujours échappé. 
gmG-Pi6JoEc
